Franck-Hertz/Mercury Data/Run 2/SDS824X_HD_CSV_C1_1.csv

Record Length,Analog:100000
Sample Interval,1.000000E-04
Vertical Units,V,
Vertical Scale,+1.000000E+00
Vertical Offset,+0.000000E+00
Horizontal Units,s
Horizontal Scale,+1.000000E+00
Model,SDS824X HD
Serial Number,SDS08A0C900609
Software Version,3.8.12.1.1.3.8
Source,CH1
Second,Value
-5.0000000000E+00,+2.791667E-01
-4.9999000000E+00,+2.791667E-01
-4.9998000000E+00,+2.750000E-01
-4.9997000000E+00,+2.770833E-01
-4.9996000000E+00,+2.791667E-01
-4.9995000000E+00,+2.791667E-01
-4.9994000000E+00,+2.750000E-01
-4.9993000000E+00,+2.791667E-01
-4.9992000000E+00,+2.770833E-01
-4.9991000000E+00,+2.750000E-01
-4.9990000000E+00,+2.833334E-01
-4.9989000000E+00,+2.812500E-01
-4.9988000000E+00,+2.770833E-01
-4.9987000000E+00,+2.729167E-01
-4.9986000000E+00,+2.750000E-01
-4.9985000000E+00,+2.770833E-01
-4.9984000000E+00,+2.750000E-01
-4.9983000000E+00,+2.833334E-01
-4.9982000000E+00,+2.833334E-01
-4.9981000000E+00,+2.812500E-01
-4.9980000000E+00,+2.791667E-01
-4.9979000000E+00,+2.770833E-01
-4.9978000000E+00,+3.000000E-01
-4.9977000000E+00,+2.833334E-01
-4.9976000000E+00,+2.854167E-01
-4.9975000000E+00,+2.770833E-01
-4.9974000000E+00,+2.833334E-01
-4.9973000000E+00,+2.812500E-01
-4.9972000000E+00,+2.833334E-01
-4.9971000000E+00,+2.770833E-01
-4.9970000000E+00,+2.812500E-01
-4.9969000000E+00,+2.791667E-01
-4.9968000000E+00,+2.833334E-01
-4.9967000000E+00,+2.750000E-01
-4.9966000000E+00,+2.770833E-01
-4.9965000000E+00,+2.812500E-01
-4.9964000000E+00,+2.791667E-01
-4.9963000000E+00,+2.812500E-01
-4.9962000000E+00,+2.791667E-01
-4.9961000000E+00,+2.666667E-01
-4.9960000000E+00,+2.750000E-01
-4.9959000000E+00,+2.812500E-01
-4.9958000000E+00,+2.854167E-01
-4.9957000000E+00,+2.750000E-01
-4.9956000000E+00,+2.833334E-01
-4.9955000000E+00,+2.812500E-01
-4.9954000000E+00,+2.791667E-01
-4.9953000000E+00,+2.833334E-01
-4.9952000000E+00,+2.770833E-01
-4.9951000000E+00,+2.770833E-01
-4.9950000000E+00,+2.854167E-01
-4.9949000000E+00,+2.770833E-01
-4.9948000000E+00,+2.791667E-01
-4.9947000000E+00,+2.791667E-01
-4.9946000000E+00,+2.791667E-01
-4.9945000000E+00,+2.833334E-01
-4.9944000000E+00,+2.791667E-01
-4.9943000000E+00,+2.791667E-01
-4.9942000000E+00,+2.854167E-01
-4.9941000000E+00,+2.937500E-01
-4.9940000000E+00,+2.770833E-01
-4.9939000000E+00,+2.770833E-01
-4.9938000000E+00,+2.812500E-01
-4.9937000000E+00,+2.854167E-01
-4.9936000000E+00,+2.833334E-01
-4.9935000000E+00,+2.812500E-01
-4.9934000000E+00,+2.750000E-01
-4.9933000000E+00,+2.833334E-01
-4.9932000000E+00,+2.812500E-01
-4.9931000000E+00,+2.791667E-01
-4.9930000000E+00,+2.812500E-01
-4.9929000000E+00,+2.750000E-01
-4.9928000000E+00,+2.875000E-01
-4.9927000000E+00,+2.833334E-01
-4.9926000000E+00,+2.854167E-01
-4.9925000000E+00,+2.791667E-01
-4.9924000000E+00,+2.750000E-01
-4.9923000000E+00,+2.791667E-01
-4.9922000000E+00,+2.770833E-01
-4.9921000000E+00,+2.791667E-01
-4.9920000000E+00,+2.812500E-01
-4.9919000000E+00,+2.812500E-01
-4.9918000000E+00,+2.812500E-01
-4.9917000000E+00,+2.833334E-01
-4.9916000000E+00,+2.770833E-01
-4.9915000000E+00,+2.833334E-01
-4.9914000000E+00,+2.812500E-01
-4.9913000000E+00,+2.833334E-01
-4.9912000000E+00,+2.854167E-01
-4.9911000000E+00,+2.750000E-01
-4.9910000000E+00,+2.812500E-01
-4.9909000000E+00,+2.833334E-01
-4.9908000000E+00,+2.812500E-01
-4.9907000000E+00,+2.812500E-01
-4.9906000000E+00,+2.812500E-01
-4.9905000000E+00,+2.833334E-01
-4.9904000000E+00,+2.812500E-01
-4.9903000000E+00,+2.770833E-01
-4.9902000000E+00,+2.833334E-01
-4.9901000000E+00,+2.812500E-01
-4.9900000000E+00,+2.812500E-01
-4.9899000000E+00,+2.604167E-01
-4.9898000000E+00,+2.833334E-01
-4.9897000000E+00,+2.833334E-01
-4.9896000000E+00,+2.750000E-01
-4.9895000000E+00,+2.875000E-01
-4.9894000000E+00,+2.812500E-01
-4.9893000000E+00,+2.833334E-01
-4.9892000000E+00,+2.812500E-01
-4.9891000000E+00,+2.791667E-01
-4.9890000000E+00,+2.833334E-01
-4.9889000000E+00,+2.812500E-01
-4.9888000000E+00,+2.854167E-01
-4.9887000000E+00,+2.791667E-01
-4.9886000000E+00,+2.833334E-01
-4.9885000000E+00,+2.812500E-01
-4.9884000000E+00,+2.833334E-01
-4.9883000000E+00,+2.854167E-01
-4.9882000000E+00,+2.833334E-01
-4.9881000000E+00,+2.791667E-01
-4.9880000000E+00,+2.791667E-01
-4.9879000000E+00,+2.833334E-01
-4.9878000000E+00,+2.791667E-01
-4.9877000000E+00,+2.854167E-01
-4.9876000000E+00,+2.833334E-01
-4.9875000000E+00,+2.791667E-01
-4.9874000000E+00,+2.750000E-01
-4.9873000000E+00,+2.812500E-01
-4.9872000000E+00,+2.750000E-01
-4.9871000000E+00,+2.854167E-01
-4.9870000000E+00,+2.833334E-01
-4.9869000000E+00,+2.812500E-01
-4.9868000000E+00,+2.750000E-01
-4.9867000000E+00,+2.833334E-01
-4.9866000000E+00,+2.833334E-01
-4.9865000000E+00,+2.812500E-01
-4.9864000000E+00,+2.833334E-01
-4.9863000000E+00,+2.833334E-01
-4.9862000000E+00,+2.833334E-01
-4.9861000000E+00,+2.833334E-01
-4.9860000000E+00,+2.833334E-01
-4.9859000000E+00,+2.770833E-01
-4.9858000000E+00,+2.812500E-01
-4.9857000000E+00,+2.833334E-01
-4.9856000000E+00,+2.833334E-01
-4.9855000000E+00,+2.833334E-01
-4.9854000000E+00,+2.791667E-01
-4.9853000000E+00,+2.812500E-01
-4.9852000000E+00,+2.833334E-01
-4.9851000000E+00,+2.833334E-01
-4.9850000000E+00,+2.750000E-01
-4.9849000000E+00,+2.770833E-01
-4.9848000000E+00,+2.833334E-01
-4.9847000000E+00,+2.833334E-01
-4.9846000000E+00,+2.812500E-01
-4.9845000000E+00,+2.833334E-01
-4.9844000000E+00,+2.791667E-01
-4.9843000000E+00,+2.791667E-01
-4.9842000000E+00,+2.875000E-01
-4.9841000000E+00,+2.812500E-01
-4.9840000000E+00,+2.770833E-01
-4.9839000000E+00,+2.833334E-01
-4.9838000000E+00,+2.812500E-01
-4.9837000000E+00,+2.812500E-01
-4.9836000000E+00,+2.812500E-01
-4.9835000000E+00,+2.791667E-01
-4.9834000000E+00,+2.812500E-01
-4.9833000000E+00,+2.791667E-01
-4.9832000000E+00,+2.854167E-01
-4.9831000000E+00,+2.812500E-01
-4.9830000000E+00,+2.854167E-01
-4.9829000000E+00,+2.875000E-01
-4.9828000000E+00,+2.875000E-01
-4.9827000000E+00,+2.854167E-01
-4.9826000000E+00,+2.833334E-01
-4.9825000000E+00,+2.854167E-01
-4.9824000000E+00,+2.812500E-01
-4.9823000000E+00,+2.791667E-01
-4.9822000000E+00,+2.833334E-01
-4.9821000000E+00,+2.791667E-01
-4.9820000000E+00,+2.833334E-01
-4.9819000000E+00,+2.812500E-01
-4.9818000000E+00,+2.770833E-01
-4.9817000000E+00,+2.854167E-01
-4.9816000000E+00,+2.812500E-01
-4.9815000000E+00,+2.833334E-01
-4.9814000000E+00,+2.854167E-01
-4.9813000000E+00,+2.854167E-01
-4.9812000000E+00,+2.812500E-01
-4.9811000000E+00,+2.812500E-01
-4.9810000000E+00,+2.812500E-01
-4.9809000000E+00,+2.854167E-01
-4.9808000000E+00,+2.833334E-01
-4.9807000000E+00,+2.833334E-01
-4.9806000000E+00,+2.812500E-01
-4.9805000000E+00,+2.875000E-01
-4.9804000000E+00,+2.833334E-01
-4.9803000000E+00,+2.833334E-01
-4.9802000000E+00,+2.854167E-01
-4.9801000000E+00,+2.770833E-01
-4.9800000000E+00,+2.791667E-01
-4.9799000000E+00,+2.812500E-01
-4.9798000000E+00,+2.833334E-01
-4.9797000000E+00,+2.875000E-01
-4.9796000000E+00,+2.812500E-01
-4.9795000000E+00,+2.875000E-01
-4.9794000000E+00,+2.812500E-01
-4.9793000000E+00,+2.854167E-01
-4.9792000000E+00,+2.854167E-01
-4.9791000000E+00,+2.833334E-01
-4.9790000000E+00,+2.875000E-01
-4.9789000000E+00,+2.854167E-01
-4.9788000000E+00,+2.854167E-01
-4.9787000000E+00,+2.854167E-01
-4.9786000000E+00,+2.812500E-01
-4.9785000000E+00,+2.875000E-01
-4.9784000000E+00,+2.770833E-01
-4.9783000000E+00,+2.854167E-01
-4.9782000000E+00,+2.812500E-01
-4.9781000000E+00,+2.854167E-01
-4.9780000000E+00,+2.937500E-01
-4.9779000000E+00,+2.833334E-01
-4.9778000000E+00,+2.812500E-01
-4.9777000000E+00,+2.854167E-01
-4.9776000000E+00,+2.812500E-01
-4.9775000000E+00,+2.791667E-01
-4.9774000000E+00,+2.854167E-01
-4.9773000000E+00,+2.854167E-01
-4.9772000000E+00,+2.833334E-01
-4.9771000000E+00,+2.833334E-01
-4.9770000000E+00,+2.812500E-01
-4.9769000000E+00,+2.833334E-01
-4.9768000000E+00,+2.812500E-01
-4.9767000000E+00,+2.854167E-01
-4.9766000000E+00,+2.854167E-01
-4.9765000000E+00,+2.895834E-01
-4.9764000000E+00,+2.875000E-01
-4.9763000000E+00,+2.854167E-01
-4.9762000000E+00,+2.833334E-01
-4.9761000000E+00,+2.854167E-01
-4.9760000000E+00,+2.833334E-01
-4.9759000000E+00,+2.770833E-01
-4.9758000000E+00,+2.916667E-01
-4.9757000000E+00,+2.833334E-01
-4.9756000000E+00,+2.854167E-01
-4.9755000000E+00,+2.895834E-01
-4.9754000000E+00,+2.875000E-01
-4.9753000000E+00,+2.812500E-01
-4.9752000000E+00,+2.854167E-01
-4.9751000000E+00,+2.875000E-01
-4.9750000000E+00,+2.875000E-01
-4.9749000000E+00,+2.854167E-01
-4.9748000000E+00,+2.937500E-01
-4.9747000000E+00,+2.854167E-01
-4.9746000000E+00,+2.875000E-01
-4.9745000000E+00,+2.833334E-01
-4.9744000000E+00,+2.854167E-01
-4.9743000000E+00,+2.854167E-01
-4.9742000000E+00,+2.854167E-01
-4.9741000000E+00,+2.854167E-01
-4.9740000000E+00,+2.875000E-01
-4.9739000000E+00,+2.875000E-01
-4.9738000000E+00,+2.854167E-01
-4.9737000000E+00,+2.812500E-01
-4.9736000000E+00,+2.833334E-01
-4.9735000000E+00,+2.833334E-01
-4.9734000000E+00,+2.875000E-01
-4.9733000000E+00,+2.854167E-01
-4.9732000000E+00,+2.854167E-01
-4.9731000000E+00,+3.041667E-01
-4.9730000000E+00,+2.875000E-01
-4.9729000000E+00,+2.833334E-01
-4.9728000000E+00,+2.854167E-01
-4.9727000000E+00,+2.812500E-01
-4.9726000000E+00,+2.854167E-01
-4.9725000000E+00,+2.875000E-01
-4.9724000000E+00,+2.833334E-01
-4.9723000000E+00,+2.854167E-01
-4.9722000000E+00,+2.791667E-01
-4.9721000000E+00,+2.770833E-01
-4.9720000000E+00,+2.895834E-01
-4.9719000000E+00,+2.916667E-01
-4.9718000000E+00,+2.812500E-01
-4.9717000000E+00,+2.895834E-01
-4.9716000000E+00,+2.895834E-01
-4.9715000000E+00,+2.854167E-01
-4.9714000000E+00,+2.833334E-01
-4.9713000000E+00,+2.854167E-01
-4.9712000000E+00,+2.895834E-01
-4.9711000000E+00,+2.937500E-01
-4.9710000000E+00,+2.875000E-01
-4.9709000000E+00,+2.875000E-01
-4.9708000000E+00,+2.770833E-01
-4.9707000000E+00,+2.833334E-01
-4.9706000000E+00,+2.833334E-01
-4.9705000000E+00,+2.833334E-01
-4.9704000000E+00,+2.854167E-01
-4.9703000000E+00,+2.895834E-01
-4.9702000000E+00,+2.812500E-01
-4.9701000000E+00,+2.770833E-01
-4.9700000000E+00,+2.833334E-01
-4.9699000000E+00,+2.833334E-01
-4.9698000000E+00,+2.854167E-01
-4.9697000000E+00,+2.895834E-01
-4.9696000000E+00,+2.854167E-01
-4.9695000000E+00,+2.833334E-01
-4.9694000000E+00,+2.854167E-01
-4.9693000000E+00,+2.854167E-01
-4.9692000000E+00,+2.854167E-01
-4.9691000000E+00,+2.854167E-01
-4.9690000000E+00,+2.854167E-01
-4.9689000000E+00,+2.854167E-01
-4.9688000000E+00,+2.833334E-01
-4.9687000000E+00,+2.875000E-01
-4.9686000000E+00,+2.979167E-01
-4.9685000000E+00,+2.854167E-01
-4.9684000000E+00,+2.812500E-01
-4.9683000000E+00,+2.833334E-01
-4.9682000000E+00,+2.854167E-01
-4.9681000000E+00,+2.875000E-01
-4.9680000000E+00,+2.875000E-01
-4.9679000000E+00,+2.854167E-01
-4.9678000000E+00,+2.875000E-01
-4.9677000000E+00,+2.875000E-01
-4.9676000000E+00,+2.875000E-01
-4.9675000000E+00,+2.854167E-01
-4.9674000000E+00,+2.916667E-01
-4.9673000000E+00,+2.833334E-01
-4.9672000000E+00,+2.833334E-01
-4.9671000000E+00,+2.937500E-01
-4.9670000000E+00,+2.875000E-01
-4.9669000000E+00,+2.895834E-01
-4.9668000000E+00,+2.833334E-01
-4.9667000000E+00,+2.916667E-01
-4.9666000000E+00,+2.854167E-01
-4.9665000000E+00,+2.770833E-01
-4.9664000000E+00,+2.895834E-01
-4.9663000000E+00,+2.854167E-01
-4.9662000000E+00,+2.875000E-01
-4.9661000000E+00,+2.875000E-01
-4.9660000000E+00,+2.875000E-01
-4.9659000000E+00,+2.875000E-01
-4.9658000000E+00,+2.916667E-01
-4.9657000000E+00,+2.916667E-01
-4.9656000000E+00,+2.875000E-01
-4.9655000000E+00,+2.916667E-01
-4.9654000000E+00,+2.916667E-01
-4.9653000000E+00,+2.833334E-01
-4.9652000000E+00,+2.875000E-01
-4.9651000000E+00,+2.875000E-01
-4.9650000000E+00,+2.791667E-01
-4.9649000000E+00,+2.895834E-01
-4.9648000000E+00,+2.916667E-01
-4.9647000000E+00,+2.833334E-01
-4.9646000000E+00,+2.895834E-01
-4.9645000000E+00,+2.895834E-01
-4.9644000000E+00,+2.895834E-01
-4.9643000000E+00,+2.895834E-01
-4.9642000000E+00,+2.895834E-01
-4.9641000000E+00,+2.937500E-01
-4.9640000000E+00,+2.875000E-01
-4.9639000000E+00,+2.812500E-01
-4.9638000000E+00,+2.895834E-01
-4.9637000000E+00,+2.895834E-01
-4.9636000000E+00,+2.875000E-01
-4.9635000000E+00,+2.854167E-01
-4.9634000000E+00,+2.895834E-01
-4.9633000000E+00,+2.875000E-01
-4.9632000000E+00,+2.875000E-01
-4.9631000000E+00,+2.875000E-01
-4.9630000000E+00,+2.854167E-01
-4.9629000000E+00,+2.875000E-01
-4.9628000000E+00,+2.812500E-01
-4.9627000000E+00,+2.895834E-01
-4.9626000000E+00,+2.875000E-01
-4.9625000000E+00,+2.812500E-01
-4.9624000000E+00,+2.895834E-01
-4.9623000000E+00,+2.895834E-01
-4.9622000000E+00,+2.875000E-01
-4.9621000000E+00,+2.854167E-01
-4.9620000000E+00,+2.708333E-01
-4.9619000000E+00,+2.895834E-01
-4.9618000000E+00,+2.875000E-01
-4.9617000000E+00,+2.854167E-01
-4.9616000000E+00,+2.875000E-01
-4.9615000000E+00,+2.875000E-01
-4.9614000000E+00,+2.895834E-01
-4.9613000000E+00,+2.854167E-01
-4.9612000000E+00,+2.916667E-01
-4.9611000000E+00,+2.937500E-01
-4.9610000000E+00,+2.875000E-01
-4.9609000000E+00,+2.916667E-01
-4.9608000000E+00,+2.916667E-01
-4.9607000000E+00,+2.854167E-01
-4.9606000000E+00,+2.875000E-01
-4.9605000000E+00,+2.875000E-01
-4.9604000000E+00,+2.875000E-01
-4.9603000000E+00,+2.854167E-01
-4.9602000000E+00,+2.895834E-01
-4.9601000000E+00,+2.895834E-01
-4.9600000000E+00,+2.833334E-01
-4.9599000000E+00,+2.916667E-01
-4.9598000000E+00,+2.895834E-01
-4.9597000000E+00,+2.916667E-01
-4.9596000000E+00,+2.895834E-01
-4.9595000000E+00,+2.875000E-01
-4.9594000000E+00,+2.937500E-01
-4.9593000000E+00,+2.875000E-01
-4.9592000000E+00,+2.875000E-01
-4.9591000000E+00,+2.895834E-01
-4.9590000000E+00,+2.812500E-01
-4.9589000000E+00,+2.833334E-01
-4.9588000000E+00,+2.937500E-01
-4.9587000000E+00,+2.833334E-01
-4.9586000000E+00,+2.958333E-01
-4.9585000000E+00,+2.791667E-01
-4.9584000000E+00,+2.875000E-01
-4.9583000000E+00,+2.895834E-01
-4.9582000000E+00,+2.854167E-01
-4.9581000000E+00,+2.895834E-01
-4.9580000000E+00,+2.937500E-01
-4.9579000000E+00,+2.895834E-01
-4.9578000000E+00,+2.937500E-01
-4.9577000000E+00,+2.812500E-01
-4.9576000000E+00,+2.833334E-01
-4.9575000000E+00,+2.854167E-01
-4.9574000000E+00,+2.916667E-01
-4.9573000000E+00,+2.916667E-01
-4.9572000000E+00,+2.875000E-01
-4.9571000000E+00,+2.854167E-01
-4.9570000000E+00,+2.916667E-01
-4.9569000000E+00,+2.958333E-01
-4.9568000000E+00,+2.854167E-01
-4.9567000000E+00,+2.895834E-01
-4.9566000000E+00,+2.937500E-01
-4.9565000000E+00,+2.854167E-01
-4.9564000000E+00,+2.854167E-01
-4.9563000000E+00,+2.916667E-01
-4.9562000000E+00,+2.895834E-01
-4.9561000000E+00,+2.916667E-01
-4.9560000000E+00,+2.875000E-01
-4.9559000000E+00,+2.895834E-01
-4.9558000000E+00,+2.895834E-01
-4.9557000000E+00,+2.895834E-01
-4.9556000000E+00,+2.958333E-01
-4.9555000000E+00,+2.895834E-01
-4.9554000000E+00,+2.895834E-01
-4.9553000000E+00,+2.854167E-01
-4.9552000000E+00,+2.895834E-01
-4.9551000000E+00,+2.958333E-01
-4.9550000000E+00,+2.875000E-01
-4.9549000000E+00,+2.895834E-01
-4.9548000000E+00,+2.895834E-01
-4.9547000000E+00,+2.895834E-01
-4.9546000000E+00,+2.895834E-01
-4.9545000000E+00,+2.875000E-01
-4.9544000000E+00,+3.000000E-01
-4.9543000000E+00,+2.895834E-01
-4.9542000000E+00,+2.895834E-01
-4.9541000000E+00,+2.937500E-01
-4.9540000000E+00,+2.916667E-01
-4.9539000000E+00,+2.937500E-01
-4.9538000000E+00,+2.895834E-01
-4.9537000000E+00,+2.604167E-01
-4.9536000000E+00,+2.916667E-01
-4.9535000000E+00,+2.979167E-01
-4.9534000000E+00,+2.895834E-01
-4.9533000000E+00,+2.895834E-01
-4.9532000000E+00,+2.854167E-01
-4.9531000000E+00,+2.937500E-01
-4.9530000000E+00,+2.958333E-01
-4.9529000000E+00,+2.895834E-01
-4.9528000000E+00,+2.937500E-01
-4.9527000000E+00,+2.812500E-01
-4.9526000000E+00,+2.916667E-01
-4.9525000000E+00,+2.937500E-01
-4.9524000000E+00,+2.895834E-01
-4.9523000000E+00,+2.958333E-01
-4.9522000000E+00,+2.895834E-01
-4.9521000000E+00,+2.666667E-01
-4.9520000000E+00,+2.937500E-01
-4.9519000000E+00,+2.916667E-01
-4.9518000000E+00,+2.916667E-01
-4.9517000000E+00,+2.937500E-01
-4.9516000000E+00,+2.916667E-01
-4.9515000000E+00,+2.895834E-01
-4.9514000000E+00,+2.937500E-01
-4.9513000000E+00,+2.875000E-01
-4.9512000000E+00,+3.291667E-01
-4.9511000000E+00,+2.958333E-01
-4.9510000000E+00,+2.833334E-01
-4.9509000000E+00,+2.895834E-01
-4.9508000000E+00,+2.895834E-01
-4.9507000000E+00,+2.875000E-01
-4.9506000000E+00,+2.979167E-01
-4.9505000000E+00,+2.895834E-01
-4.9504000000E+00,+2.895834E-01
-4.9503000000E+00,+2.916667E-01
-4.9502000000E+00,+2.916667E-01
-4.9501000000E+00,+2.979167E-01
-4.9500000000E+00,+3.041667E-01
-4.9499000000E+00,+2.916667E-01
-4.9498000000E+00,+2.958333E-01
-4.9497000000E+00,+2.916667E-01
-4.9496000000E+00,+2.895834E-01
-4.9495000000E+00,+2.916667E-01
-4.9494000000E+00,+2.937500E-01
-4.9493000000E+00,+2.958333E-01
-4.9492000000E+00,+2.916667E-01
-4.9491000000E+00,+2.937500E-01
-4.9490000000E+00,+2.875000E-01
-4.9489000000E+00,+2.916667E-01
-4.9488000000E+00,+2.916667E-01
-4.9487000000E+00,+2.916667E-01
-4.9486000000E+00,+2.916667E-01
-4.9485000000E+00,+2.916667E-01
-4.9484000000E+00,+2.979167E-01
-4.9483000000E+00,+2.937500E-01
-4.9482000000E+00,+2.895834E-01
-4.9481000000E+00,+2.958333E-01
-4.9480000000E+00,+2.833334E-01
-4.9479000000E+00,+2.937500E-01
-4.9478000000E+00,+2.895834E-01
-4.9477000000E+00,+2.916667E-01
-4.9476000000E+00,+2.916667E-01
-4.9475000000E+00,+2.854167E-01
-4.9474000000E+00,+2.958333E-01
-4.9473000000E+00,+2.937500E-01
-4.9472000000E+00,+2.958333E-01
-4.9471000000E+00,+2.916667E-01
-4.9470000000E+00,+2.916667E-01
-4.9469000000E+00,+2.958333E-01
-4.9468000000E+00,+2.916667E-01
-4.9467000000E+00,+2.916667E-01
-4.9466000000E+00,+2.979167E-01
-4.9465000000E+00,+2.875000E-01
-4.9464000000E+00,+2.895834E-01
-4.9463000000E+00,+2.937500E-01
-4.9462000000E+00,+2.916667E-01
-4.9461000000E+00,+2.958333E-01
-4.9460000000E+00,+2.916667E-01
-4.9459000000E+00,+2.916667E-01
-4.9458000000E+00,+2.895834E-01
-4.9457000000E+00,+3.541667E-01
-4.9456000000E+00,+2.895834E-01
-4.9455000000E+00,+2.937500E-01
-4.9454000000E+00,+2.916667E-01
-4.9453000000E+00,+2.958333E-01
-4.9452000000E+00,+2.979167E-01
-4.9451000000E+00,+2.958333E-01
-4.9450000000E+00,+2.958333E-01
-4.9449000000E+00,+2.958333E-01
-4.9448000000E+00,+2.937500E-01
-4.9447000000E+00,+2.895834E-01
-4.9446000000E+00,+2.916667E-01
-4.9445000000E+00,+2.937500E-01
-4.9444000000E+00,+2.916667E-01
-4.9443000000E+00,+2.958333E-01
-4.9442000000E+00,+2.916667E-01
-4.9441000000E+00,+2.895834E-01
-4.9440000000E+00,+2.875000E-01
-4.9439000000E+00,+2.958333E-01
-4.9438000000E+00,+2.937500E-01
-4.9437000000E+00,+2.895834E-01
-4.9436000000E+00,+2.958333E-01
-4.9435000000E+00,+2.750000E-01
-4.9434000000E+00,+2.916667E-01
-4.9433000000E+00,+2.937500E-01
-4.9432000000E+00,+2.895834E-01
-4.9431000000E+00,+2.979167E-01
-4.9430000000E+00,+2.875000E-01
-4.9429000000E+00,+2.937500E-01
-4.9428000000E+00,+2.916667E-01
-4.9427000000E+00,+3.000000E-01
-4.9426000000E+00,+2.916667E-01
-4.9425000000E+00,+2.895834E-01
-4.9424000000E+00,+2.958333E-01
-4.9423000000E+00,+2.937500E-01
-4.9422000000E+00,+2.937500E-01
-4.9421000000E+00,+2.958333E-01
-4.9420000000E+00,+2.895834E-01
-4.9419000000E+00,+2.916667E-01
-4.9418000000E+00,+2.895834E-01
-4.9417000000E+00,+2.958333E-01
-4.9416000000E+00,+2.958333E-01
-4.9415000000E+00,+2.979167E-01
-4.9414000000E+00,+2.958333E-01
-4.9413000000E+00,+2.937500E-01
-4.9412000000E+00,+2.916667E-01
-4.9411000000E+00,+3.000000E-01
-4.9410000000E+00,+2.979167E-01
-4.9409000000E+00,+2.958333E-01
-4.9408000000E+00,+2.854167E-01
-4.9407000000E+00,+2.979167E-01
-4.9406000000E+00,+2.979167E-01
-4.9405000000E+00,+2.958333E-01
-4.9404000000E+00,+2.916667E-01
-4.9403000000E+00,+2.937500E-01
-4.9402000000E+00,+2.916667E-01
-4.9401000000E+00,+2.958333E-01
-4.9400000000E+00,+2.937500E-01
-4.9399000000E+00,+2.937500E-01
-4.9398000000E+00,+2.937500E-01
-4.9397000000E+00,+2.958333E-01
-4.9396000000E+00,+2.916667E-01
-4.9395000000E+00,+2.937500E-01
-4.9394000000E+00,+2.937500E-01
-4.9393000000E+00,+2.937500E-01
-4.9392000000E+00,+2.937500E-01
-4.9391000000E+00,+2.937500E-01
-4.9390000000E+00,+2.979167E-01
-4.9389000000E+00,+2.979167E-01
-4.9388000000E+00,+2.895834E-01
-4.9387000000E+00,+2.979167E-01
-4.9386000000E+00,+2.979167E-01
-4.9385000000E+00,+2.979167E-01
